<svg width="161" height="20" viewBox="0 0 161 20" fill="none" xmlns="http://www.w3.org/2000/svg">
<path d="M3.86 8.8H0.32V6.8H3.86V3.18H6.02V6.8H9.6V8.8H6.02V12.46H3.86V8.8ZM17.4541 3.3H11.4141V0.999999H20.2141V2.54L15.2541 15H12.7341L17.4541 3.3ZM31.3938 17.86L29.9338 19.12C27.2404 16.8 25.8938 13.9267 25.8938 10.5C25.8938 7.19333 27.2471 4.32 29.9538 1.88L31.3738 3.14C30.2804 4.22 29.4738 5.35333 28.9538 6.54C28.4471 7.71333 28.1938 9.03333 28.1938 10.5C28.1938 11.9 28.4804 13.2467 29.0538 14.54C29.6271 15.82 30.4071 16.9267 31.3938 17.86ZM37.2223 6.66H37.6023C38.109 6.66 38.5357 6.48667 38.8823 6.14C39.229 5.78 39.4023 5.35333 39.4023 4.86C39.4023 4.3 39.2157 3.86667 38.8423 3.56C38.469 3.24 37.9757 3.08 37.3623 3.08C36.7623 3.08 36.2823 3.24667 35.9223 3.58C35.5623 3.91333 35.3823 4.34 35.3823 4.86C35.3823 5.35333 35.5557 5.78 35.9023 6.14C36.2623 6.48667 36.7023 6.66 37.2223 6.66ZM37.6023 8.96H37.2623C36.6357 8.96 36.1023 9.14667 35.6623 9.52C35.2223 9.88 35.0023 10.3533 35.0023 10.94C35.0023 11.5133 35.2157 11.9867 35.6423 12.36C36.0823 12.7333 36.6623 12.92 37.3823 12.92C38.169 12.92 38.769 12.74 39.1823 12.38C39.609 12.02 39.8157 11.54 39.8023 10.94C39.789 10.3267 39.5823 9.84667 39.1823 9.5C38.7823 9.14 38.2557 8.96 37.6023 8.96ZM32.5423 11.38C32.5423 10.5267 32.7623 9.78667 33.2023 9.16C33.6423 8.52 34.2223 8.08 34.9423 7.84V7.78C34.3557 7.52667 33.8757 7.10667 33.5023 6.52C33.129 5.92 32.9423 5.23333 32.9423 4.46C32.9423 3.38 33.369 2.5 34.2223 1.82C35.0757 1.12667 36.129 0.779999 37.3823 0.779999C38.649 0.779999 39.709 1.12667 40.5623 1.82C41.429 2.5 41.8623 3.38 41.8623 4.46C41.8623 5.16667 41.6623 5.82667 41.2623 6.44C40.8757 7.04 40.3557 7.48 39.7023 7.76V7.82C40.4357 7.98 41.0423 8.36667 41.5223 8.98C42.0023 9.58 42.2423 10.3133 42.2423 11.18C42.2423 12.4333 41.7823 13.42 40.8623 14.14C39.969 14.86 38.8157 15.22 37.4023 15.22C35.989 15.22 34.829 14.8733 33.9223 14.18C33.0023 13.4733 32.5423 12.54 32.5423 11.38ZM45.0545 5.54L43.8345 3.64L47.4145 0.96H49.0745V15H46.7745V4.24L45.0545 5.54ZM60.708 15H51.908V13.16C53.5213 11.5867 54.6346 10.4467 55.248 9.74C56.9013 7.84667 57.728 6.25333 57.728 4.96C57.728 4.38667 57.5746 3.94 57.268 3.62C56.9613 3.3 56.5213 3.14 55.948 3.14C54.9213 3.14 54.248 3.76667 53.928 5.02L52.008 4.16C52.1946 3.13333 52.6613 2.32667 53.408 1.74C54.168 1.14 55.1013 0.84 56.208 0.84C57.4613 0.84 58.4346 1.2 59.128 1.92C59.8213 2.62667 60.168 3.48667 60.168 4.5C60.168 5.22 60.0146 5.98667 59.708 6.8C59.4013 7.58667 59.048 8.27333 58.648 8.86C58.2346 9.47333 57.748 10.0733 57.188 10.66C56.708 11.1933 56.268 11.6467 55.868 12.02C55.668 12.2067 55.3413 12.4867 54.888 12.86H60.708V15ZM63.1163 19.12L61.6562 17.86C62.6429 16.9267 63.4229 15.82 63.9963 14.54C64.5696 13.2467 64.8563 11.9 64.8563 10.5C64.8563 9.03333 64.5963 7.71333 64.0763 6.54C63.5696 5.35333 62.7696 4.22 61.6763 3.14L63.0963 1.88C65.8029 4.32 67.1563 7.19333 67.1563 10.5C67.1563 13.9267 65.8096 16.8 63.1163 19.12Z" fill="#D6AF76"/>
<path d="M81.2031 15H78.9031V11.76H72.5031V10.06L77.9031 0.999999H80.5431L75.4831 9.46H78.9031V6H81.2031V9.46H83.0031V11.76H81.2031V15ZM89.0517 0.84C90.6117 0.84 91.7784 1.48 92.5517 2.76C93.3384 4.05333 93.7317 5.8 93.7317 8C93.7317 10.2667 93.3384 12.0267 92.5517 13.28C91.7651 14.5333 90.6117 15.16 89.0917 15.16C87.5584 15.16 86.3851 14.5267 85.5717 13.26C84.7584 11.9933 84.3517 10.24 84.3517 8C84.3517 5.74667 84.7517 3.99333 85.5517 2.74C86.3517 1.47333 87.5184 0.84 89.0517 0.84ZM86.8117 8C86.8117 11.3467 87.5717 13.02 89.0917 13.02C89.8784 13.02 90.4384 12.6267 90.7717 11.84C91.1184 11.0533 91.2917 9.77333 91.2917 8C91.2917 6.24 91.1184 4.96667 90.7717 4.18C90.4251 3.39333 89.8517 3 89.0517 3C88.2651 3 87.6917 3.40667 87.3317 4.22C86.9851 5.02 86.8117 6.28 86.8117 8ZM96.2459 5.54L95.0259 3.64L98.6059 0.96H100.266V15H97.9659V4.24L96.2459 5.54ZM108.639 10.6H103.599V8.46H108.639V10.6ZM110.779 10.04C110.779 8.84 110.986 7.69333 111.399 6.6C111.812 5.49333 112.372 4.54667 113.079 3.76C114.466 2.2 115.992 1.20667 117.659 0.779999L118.599 2.52C117.372 2.89333 116.299 3.52667 115.379 4.42C114.472 5.31333 113.846 6.38667 113.499 7.64C114.126 6.77333 115.086 6.34 116.379 6.34C117.472 6.34 118.399 6.74 119.159 7.54C119.919 8.34 120.299 9.36667 120.299 10.62C120.299 12.02 119.846 13.14 118.939 13.98C118.032 14.8067 116.979 15.22 115.779 15.22C114.246 15.22 113.032 14.72 112.139 13.72C111.232 12.7067 110.779 11.48 110.779 10.04ZM113.219 10.06C113.219 10.9 113.446 11.5867 113.899 12.12C114.366 12.6533 114.999 12.92 115.799 12.92C116.399 12.92 116.892 12.7133 117.279 12.3C117.666 11.8867 117.859 11.38 117.859 10.78C117.859 10.1 117.659 9.54667 117.259 9.12C116.859 8.69333 116.306 8.48 115.599 8.48C114.519 8.48 113.726 9.00667 113.219 10.06ZM130.051 15H127.751V11.76H121.351V10.06L126.751 0.999999H129.391L124.331 9.46H127.751V6H130.051V9.46H131.851V11.76H130.051V15ZM138.639 10.6H133.599V8.46H138.639V10.6ZM150.079 6.12C150.079 8.70667 149.399 10.8133 148.039 12.44C146.706 14.0267 144.992 14.9533 142.899 15.22L142.139 13.4C145.032 12.8267 146.772 11.2 147.359 8.52C146.746 9.36 145.859 9.78 144.699 9.78C143.526 9.78 142.526 9.36667 141.699 8.54C140.886 7.72667 140.479 6.69333 140.479 5.44C140.479 4.05333 140.952 2.92667 141.899 2.06C142.832 1.20667 143.906 0.779999 145.119 0.779999C146.652 0.779999 147.859 1.27333 148.739 2.26C149.632 3.23333 150.079 4.52 150.079 6.12ZM147.639 6.1C147.639 5.22 147.412 4.5 146.959 3.94C146.506 3.36667 145.892 3.08 145.119 3.08C144.479 3.08 143.952 3.3 143.539 3.74C143.126 4.16667 142.919 4.68 142.919 5.28C142.919 5.93333 143.132 6.48667 143.559 6.94C143.999 7.39333 144.566 7.62 145.259 7.62C146.366 7.62 147.159 7.11333 147.639 6.1ZM152.593 8.44L153.513 0.999999H160.133V3.3H155.533L155.133 6.08C155.399 6.02667 155.666 6 155.933 6C157.213 6 158.259 6.40667 159.073 7.22C159.913 8.03333 160.333 9.11333 160.333 10.46C160.333 11.9133 159.873 13.0733 158.953 13.94C158.046 14.7933 156.899 15.22 155.513 15.22C154.753 15.22 153.973 15.0467 153.173 14.7C152.426 14.3533 151.839 13.86 151.413 13.22L152.733 11.48C153.013 11.9067 153.419 12.2533 153.953 12.52C154.499 12.7867 155.039 12.92 155.573 12.92C156.239 12.92 156.786 12.7 157.213 12.26C157.653 11.82 157.873 11.2533 157.873 10.56C157.873 9.82667 157.599 9.23333 157.053 8.78C156.519 8.31333 155.799 8.08 154.893 8.08C153.919 8.08 153.153 8.2 152.593 8.44Z" fill="white"/>
</svg>
